
   __        __      __                      __         __                      __               __  _
  / /  ___ _/ /_____/ /    ___  _______  ___/ /_ ______/ /____   _______  ___  / /________ _____/ /_(_)__  ___ _
 / _ \/ _ `/ __/ __/ _ \  / _ \/ __/ _ \/ _  / // / __/ __(_-<  / __/ _ \/ _ \/ __/ __/ _ `/ __/ __/ / _ \/ _ `/
/_.__/\_,_/\__/\__/_//_/ / .__/_/  \___/\_,_/\_,_/\__/\__/___/  \__/\___/_//_/\__/_/  \_,_/\__/\__/_/_//_/\_, /
                        /_/                                                                              /___/